{
  "project_info": {
    "project_number": "552708047149",
    "firebase_url": "https://pruebafirebase-cd026.firebaseio.com",
    "project_id": "pruebafirebase-cd026",
    "storage_bucket": "pruebafirebase-cd026.appspot.com"
  },
  "client": [
    {
      "client_info": {
        "mobilesdk_app_id": "1:552708047149:android:6209222807427f29",
        "android_client_info": {
          "package_name": "com.example.luisa.pruebafirebasedb"
        }
      },
      "oauth_client": [
        {
          "client_id": "552708047149-e2d70hjom4kjec313jrn4mu77rno622i.apps.googleusercontent.com",
          "client_type": 1,
          "android_info": {
            "package_name": "com.example.luisa.pruebafirebasedb",
            "certificate_hash": "23abd98ecb9bf4bb9ffd753af262a2bc25430408"
          }
        },
        {
          "client_id": "552708047149-4br5p2kl0gq9n702nnkvsgbs1v8f2l6b.apps.googleusercontent.com",
          "client_type": 3
        }
      ],
      "api_key": [
        {
          "current_key": "AIzaSyDyIQtwUN1zvSL1YE9-SfMLrMf2X-umit0"
        }
      ],
      "services": {
        "analytics_service": {
          "status": 1
        },
        "appinvite_service": {
          "status": 2,
          "other_platform_oauth_client": [
            {
              "client_id": "552708047149-4br5p2kl0gq9n702nnkvsgbs1v8f2l6b.apps.googleusercontent.com",
              "client_type": 3
            }
          ]
        },
        "ads_service": {
          "status": 2
        }
      }
    }
  ],
  "configuration_version": "1"
}